Grammar

    0 $accept: Classes $end

    1 Classes: Class Classes
    2        | Class

    3 Class: T_ID T_EXTENDS T_ID T_OPENBRACK Members T_CLOSEBRACK
    4      | T_ID T_OPENBRACK Members T_CLOSEBRACK

    5 Members: Type T_ID Members
    6        | Methods

    7 Type: T_BOOL
    8     | T_INT
    9     | T_ID

   10 ReturnType: T_BOOL
   11           | T_INT
   12           | T_ID
   13           | T_NONE

   14 Methods: T_ID T_OPENPAREN Parameters T_CLOSEPAREN T_ARROW ReturnType T_OPENBRACK Declarations T_CLOSEBRACK Methods
   15        | /* empty */

   16 Parameters: ParametersP
   17           | /* empty */

   18 ParametersP: ParametersP T_COMMA T_ID T_COLON Type
   19            | T_ID T_COLON Type

   20 Declarations: Declaration Declarations
   21             | Statements

   22 Declaration: Declaration T_COMMA T_ID
   23            | Type T_ID

   24 Statements: Statement Statements
   25           | Return

   26 Return: T_RETURN Expression
   27       | /* empty */

   28 Statement: Assignment
   29          | MethodCall
   30          | IfElse
   31          | While
   32          | Print

   33 Assignment: T_ID T_EQUAL Expression
   34           | T_ID T_DOT T_ID T_EQUAL Expression

   35 MethodCall: T_ID T_OPENPAREN Arguments T_CLOSEPAREN
   36           | T_ID T_DOT T_ID T_OPENPAREN Arguments T_CLOSEPAREN

   37 IfElse: T_IF Expression T_OPENBRACK Block T_CLOSEBRACK
   38       | T_IF Expression T_OPENBRACK Block T_CLOSEBRACK T_ELSE T_OPENBRACK Block T_CLOSEBRACK

   39 While: T_WHILE Expression T_OPENBRACK Block T_CLOSEBRACK

   40 Block: Block Statement
   41      | Statement

   42 Print: T_PRINT Expression

   43 Expression: Expression T_PLUS Expression
   44           | Expression T_MINUS Expression
   45           | Expression T_MULTIPLY Expression
   46           | Expression T_DIVIDE Expression
   47           | Expression T_LESS Expression
   48           | Expression T_LESSOREQUAL Expression
   49           | Expression T_EQUALS Expression
   50           | Expression T_AND Expression
   51           | Expression T_OR Expression
   52           | T_NOT Expression
   53           | T_MINUS Expression
   54           | T_ID
   55           | T_ID T_DOT T_ID
   56           | MethodCall
   57           | T_OPENPAREN Expression T_CLOSEPAREN
   58           | T_NUMBER
   59           | T_TRUE
   60           | T_FALSE
   61           | T_NEW T_ID
   62           | T_NEW T_ID T_OPENPAREN Arguments T_CLOSEPAREN

   63 Arguments: ArgumentsP
   64          | /* empty */

   65 ArgumentsP: ArgumentsP T_COMMA Expression
   66           | Expression


Terminals, with rules where they appear

$end (0) 0
error (256)
T_NUMBER (258) 58
T_ID (259) 3 4 5 9 12 14 18 19 22 23 33 34 35 36 54 55 61 62
T_INT (260) 8 11
T_PLUS (261) 43
T_MINUS (262) 44 53
T_MULTIPLY (263) 45
T_DIVIDE (264) 46
T_LESS (265) 47
T_LESSOREQUAL (266) 48
T_EQUAL (267) 33 34
T_EQUALS (268) 49
T_AND (269) 50
T_OR (270) 51
T_NOT (271) 52
T_PRINT (272) 42
T_RETURN (273) 26
T_IF (274) 37 38
T_ELSE (275) 38
T_WHILE (276) 39
T_OPENPAREN (277) 14 35 36 57 62
T_CLOSEPAREN (278) 14 35 36 57 62
T_OPENBRACK (279) 3 4 14 37 38 39
T_CLOSEBRACK (280) 3 4 14 37 38 39
T_EXTENDS (281) 3
T_NEW (282) 61 62
T_NONE (283) 13
T_BOOL (284) 7 10
T_FALSE (285) 60
T_TRUE (286) 59
T_COLON (287) 18 19
T_DOT (288) 34 36 55
T_COMMA (289) 18 22 65
T_ARROW (290) 14
U_MINUS (291)


Nonterminals, with rules where they appear

$accept (37)
    on left: 0
Classes (38)
    on left: 1 2, on right: 0 1
Class (39)
    on left: 3 4, on right: 1 2
Members (40)
    on left: 5 6, on right: 3 4 5
Type (41)
    on left: 7 8 9, on right: 5 18 19 23
ReturnType (42)
    on left: 10 11 12 13, on right: 14
Methods (43)
    on left: 14 15, on right: 6 14
Parameters (44)
    on left: 16 17, on right: 14
ParametersP (45)
    on left: 18 19, on right: 16 18
Declarations (46)
    on left: 20 21, on right: 14 20
Declaration (47)
    on left: 22 23, on right: 20 22
Statements (48)
    on left: 24 25, on right: 21 24
Return (49)
    on left: 26 27, on right: 25
Statement (50)
    on left: 28 29 30 31 32, on right: 24 40 41
Assignment (51)
    on left: 33 34, on right: 28
MethodCall (52)
    on left: 35 36, on right: 29 56
IfElse (53)
    on left: 37 38, on right: 30
While (54)
    on left: 39, on right: 31
Block (55)
    on left: 40 41, on right: 37 38 39 40
Print (56)
    on left: 42, on right: 32
Expression (57)
    on left: 43 44 45 46 47 48 49 50 51 52 53 54 55 56 57 58 59 60
    61 62, on right: 26 33 34 37 38 39 42 43 44 45 46 47 48 49 50 51
    52 53 57 65 66
Arguments (58)
    on left: 63 64, on right: 35 36 62
ArgumentsP (59)
    on left: 65 66, on right: 63 65


state 0

    0 $accept: . Classes $end

    T_ID  shift, and go to state 1

    Classes  go to state 2
    Class    go to state 3


state 1

    3 Class: T_ID . T_EXTENDS T_ID T_OPENBRACK Members T_CLOSEBRACK
    4      | T_ID . T_OPENBRACK Members T_CLOSEBRACK

    T_OPENBRACK  shift, and go to state 4
    T_EXTENDS    shift, and go to state 5


state 2

    0 $accept: Classes . $end

    $end  shift, and go to state 6


state 3

    1 Classes: Class . Classes
    2        | Class .

    T_ID  shift, and go to state 1

    $default  reduce using rule 2 (Classes)

    Classes  go to state 7
    Class    go to state 3


state 4

    4 Class: T_ID T_OPENBRACK . Members T_CLOSEBRACK

    T_ID    shift, and go to state 8
    T_INT   shift, and go to state 9
    T_BOOL  shift, and go to state 10

    $default  reduce using rule 15 (Methods)

    Members  go to state 11
    Type     go to state 12
    Methods  go to state 13


state 5

    3 Class: T_ID T_EXTENDS . T_ID T_OPENBRACK Members T_CLOSEBRACK

    T_ID  shift, and go to state 14


state 6

    0 $accept: Classes $end .

    $default  accept


state 7

    1 Classes: Class Classes .

    $default  reduce using rule 1 (Classes)


state 8

    9 Type: T_ID .
   14 Methods: T_ID . T_OPENPAREN Parameters T_CLOSEPAREN T_ARROW ReturnType T_OPENBRACK Declarations T_CLOSEBRACK Methods

    T_OPENPAREN  shift, and go to state 15

    $default  reduce using rule 9 (Type)


state 9

    8 Type: T_INT .

    $default  reduce using rule 8 (Type)


state 10

    7 Type: T_BOOL .

    $default  reduce using rule 7 (Type)


state 11

    4 Class: T_ID T_OPENBRACK Members . T_CLOSEBRACK

    T_CLOSEBRACK  shift, and go to state 16


state 12

    5 Members: Type . T_ID Members

    T_ID  shift, and go to state 17


state 13

    6 Members: Methods .

    $default  reduce using rule 6 (Members)


state 14

    3 Class: T_ID T_EXTENDS T_ID . T_OPENBRACK Members T_CLOSEBRACK

    T_OPENBRACK  shift, and go to state 18


state 15

   14 Methods: T_ID T_OPENPAREN . Parameters T_CLOSEPAREN T_ARROW ReturnType T_OPENBRACK Declarations T_CLOSEBRACK Methods

    T_ID  shift, and go to state 19

    $default  reduce using rule 17 (Parameters)

    Parameters   go to state 20
    ParametersP  go to state 21


state 16

    4 Class: T_ID T_OPENBRACK Members T_CLOSEBRACK .

    $default  reduce using rule 4 (Class)


state 17

    5 Members: Type T_ID . Members

    T_ID    shift, and go to state 8
    T_INT   shift, and go to state 9
    T_BOOL  shift, and go to state 10

    $default  reduce using rule 15 (Methods)

    Members  go to state 22
    Type     go to state 12
    Methods  go to state 13


state 18

    3 Class: T_ID T_EXTENDS T_ID T_OPENBRACK . Members T_CLOSEBRACK

    T_ID    shift, and go to state 8
    T_INT   shift, and go to state 9
    T_BOOL  shift, and go to state 10

    $default  reduce using rule 15 (Methods)

    Members  go to state 23
    Type     go to state 12
    Methods  go to state 13


state 19

   19 ParametersP: T_ID . T_COLON Type

    T_COLON  shift, and go to state 24


state 20

   14 Methods: T_ID T_OPENPAREN Parameters . T_CLOSEPAREN T_ARROW ReturnType T_OPENBRACK Declarations T_CLOSEBRACK Methods

    T_CLOSEPAREN  shift, and go to state 25


state 21

   16 Parameters: ParametersP .
   18 ParametersP: ParametersP . T_COMMA T_ID T_COLON Type

    T_COMMA  shift, and go to state 26

    $default  reduce using rule 16 (Parameters)


state 22

    5 Members: Type T_ID Members .

    $default  reduce using rule 5 (Members)


state 23

    3 Class: T_ID T_EXTENDS T_ID T_OPENBRACK Members . T_CLOSEBRACK

    T_CLOSEBRACK  shift, and go to state 27


state 24

   19 ParametersP: T_ID T_COLON . Type

    T_ID    shift, and go to state 28
    T_INT   shift, and go to state 9
    T_BOOL  shift, and go to state 10

    Type  go to state 29


state 25

   14 Methods: T_ID T_OPENPAREN Parameters T_CLOSEPAREN . T_ARROW ReturnType T_OPENBRACK Declarations T_CLOSEBRACK Methods

    T_ARROW  shift, and go to state 30


state 26

   18 ParametersP: ParametersP T_COMMA . T_ID T_COLON Type

    T_ID  shift, and go to state 31


state 27

    3 Class: T_ID T_EXTENDS T_ID T_OPENBRACK Members T_CLOSEBRACK .

    $default  reduce using rule 3 (Class)


state 28

    9 Type: T_ID .

    $default  reduce using rule 9 (Type)


state 29

   19 ParametersP: T_ID T_COLON Type .

    $default  reduce using rule 19 (ParametersP)


state 30

   14 Methods: T_ID T_OPENPAREN Parameters T_CLOSEPAREN T_ARROW . ReturnType T_OPENBRACK Declarations T_CLOSEBRACK Methods

    T_ID    shift, and go to state 32
    T_INT   shift, and go to state 33
    T_NONE  shift, and go to state 34
    T_BOOL  shift, and go to state 35

    ReturnType  go to state 36


state 31

   18 ParametersP: ParametersP T_COMMA T_ID . T_COLON Type

    T_COLON  shift, and go to state 37


state 32

   12 ReturnType: T_ID .

    $default  reduce using rule 12 (ReturnType)


state 33

   11 ReturnType: T_INT .

    $default  reduce using rule 11 (ReturnType)


state 34

   13 ReturnType: T_NONE .

    $default  reduce using rule 13 (ReturnType)


state 35

   10 ReturnType: T_BOOL .

    $default  reduce using rule 10 (ReturnType)


state 36

   14 Methods: T_ID T_OPENPAREN Parameters T_CLOSEPAREN T_ARROW ReturnType . T_OPENBRACK Declarations T_CLOSEBRACK Methods

    T_OPENBRACK  shift, and go to state 38


state 37

   18 ParametersP: ParametersP T_COMMA T_ID T_COLON . Type

    T_ID    shift, and go to state 28
    T_INT   shift, and go to state 9
    T_BOOL  shift, and go to state 10

    Type  go to state 39


state 38

   14 Methods: T_ID T_OPENPAREN Parameters T_CLOSEPAREN T_ARROW ReturnType T_OPENBRACK . Declarations T_CLOSEBRACK Methods

    T_ID      shift, and go to state 40
    T_INT     shift, and go to state 9
    T_PRINT   shift, and go to state 41
    T_RETURN  shift, and go to state 42
    T_IF      shift, and go to state 43
    T_WHILE   shift, and go to state 44
    T_BOOL    shift, and go to state 10

    $default  reduce using rule 27 (Return)

    Type          go to state 45
    Declarations  go to state 46
    Declaration   go to state 47
    Statements    go to state 48
    Return        go to state 49
    Statement     go to state 50
    Assignment    go to state 51
    MethodCall    go to state 52
    IfElse        go to state 53
    While         go to state 54
    Print         go to state 55


state 39

   18 ParametersP: ParametersP T_COMMA T_ID T_COLON Type .

    $default  reduce using rule 18 (ParametersP)


state 40

    9 Type: T_ID .
   33 Assignment: T_ID . T_EQUAL Expression
   34           | T_ID . T_DOT T_ID T_EQUAL Expression
   35 MethodCall: T_ID . T_OPENPAREN Arguments T_CLOSEPAREN
   36           | T_ID . T_DOT T_ID T_OPENPAREN Arguments T_CLOSEPAREN

    T_EQUAL      shift, and go to state 56
    T_OPENPAREN  shift, and go to state 57
    T_DOT        shift, and go to state 58

    $default  reduce using rule 9 (Type)


state 41

   42 Print: T_PRINT . Expression

    T_NUMBER     shift, and go to state 59
    T_ID         shift, and go to state 60
    T_MINUS      shift, and go to state 61
    T_NOT        shift, and go to state 62
    T_OPENPAREN  shift, and go to state 63
    T_NEW        shift, and go to state 64
    T_FALSE      shift, and go to state 65
    T_TRUE       shift, and go to state 66

    MethodCall  go to state 67
    Expression  go to state 68


state 42

   26 Return: T_RETURN . Expression

    T_NUMBER     shift, and go to state 59
    T_ID         shift, and go to state 60
    T_MINUS      shift, and go to state 61
    T_NOT        shift, and go to state 62
    T_OPENPAREN  shift, and go to state 63
    T_NEW        shift, and go to state 64
    T_FALSE      shift, and go to state 65
    T_TRUE       shift, and go to state 66

    MethodCall  go to state 67
    Expression  go to state 69


state 43

   37 IfElse: T_IF . Expression T_OPENBRACK Block T_CLOSEBRACK
   38       | T_IF . Expression T_OPENBRACK Block T_CLOSEBRACK T_ELSE T_OPENBRACK Block T_CLOSEBRACK

    T_NUMBER     shift, and go to state 59
    T_ID         shift, and go to state 60
    T_MINUS      shift, and go to state 61
    T_NOT        shift, and go to state 62
    T_OPENPAREN  shift, and go to state 63
    T_NEW        shift, and go to state 64
    T_FALSE      shift, and go to state 65
    T_TRUE       shift, and go to state 66

    MethodCall  go to state 67
    Expression  go to state 70


state 44

   39 While: T_WHILE . Expression T_OPENBRACK Block T_CLOSEBRACK

    T_NUMBER     shift, and go to state 59
    T_ID         shift, and go to state 60
    T_MINUS      shift, and go to state 61
    T_NOT        shift, and go to state 62
    T_OPENPAREN  shift, and go to state 63
    T_NEW        shift, and go to state 64
    T_FALSE      shift, and go to state 65
    T_TRUE       shift, and go to state 66

    MethodCall  go to state 67
    Expression  go to state 71


state 45

   23 Declaration: Type . T_ID

    T_ID  shift, and go to state 72


state 46

   14 Methods: T_ID T_OPENPAREN Parameters T_CLOSEPAREN T_ARROW ReturnType T_OPENBRACK Declarations . T_CLOSEBRACK Methods

    T_CLOSEBRACK  shift, and go to state 73


state 47

   20 Declarations: Declaration . Declarations
   22 Declaration: Declaration . T_COMMA T_ID

    T_ID      shift, and go to state 40
    T_INT     shift, and go to state 9
    T_PRINT   shift, and go to state 41
    T_RETURN  shift, and go to state 42
    T_IF      shift, and go to state 43
    T_WHILE   shift, and go to state 44
    T_BOOL    shift, and go to state 10
    T_COMMA   shift, and go to state 74

    $default  reduce using rule 27 (Return)

    Type          go to state 45
    Declarations  go to state 75
    Declaration   go to state 47
    Statements    go to state 48
    Return        go to state 49
    Statement     go to state 50
    Assignment    go to state 51
    MethodCall    go to state 52
    IfElse        go to state 53
    While         go to state 54
    Print         go to state 55


state 48

   21 Declarations: Statements .

    $default  reduce using rule 21 (Declarations)


state 49

   25 Statements: Return .

    $default  reduce using rule 25 (Statements)


state 50

   24 Statements: Statement . Statements

    T_ID      shift, and go to state 76
    T_PRINT   shift, and go to state 41
    T_RETURN  shift, and go to state 42
    T_IF      shift, and go to state 43
    T_WHILE   shift, and go to state 44

    $default  reduce using rule 27 (Return)

    Statements  go to state 77
    Return      go to state 49
    Statement   go to state 50
    Assignment  go to state 51
    MethodCall  go to state 52
    IfElse      go to state 53
    While       go to state 54
    Print       go to state 55


state 51

   28 Statement: Assignment .

    $default  reduce using rule 28 (Statement)


state 52

   29 Statement: MethodCall .

    $default  reduce using rule 29 (Statement)


state 53

   30 Statement: IfElse .

    $default  reduce using rule 30 (Statement)


state 54

   31 Statement: While .

    $default  reduce using rule 31 (Statement)


state 55

   32 Statement: Print .

    $default  reduce using rule 32 (Statement)


state 56

   33 Assignment: T_ID T_EQUAL . Expression

    T_NUMBER     shift, and go to state 59
    T_ID         shift, and go to state 60
    T_MINUS      shift, and go to state 61
    T_NOT        shift, and go to state 62
    T_OPENPAREN  shift, and go to state 63
    T_NEW        shift, and go to state 64
    T_FALSE      shift, and go to state 65
    T_TRUE       shift, and go to state 66

    MethodCall  go to state 67
    Expression  go to state 78


state 57

   35 MethodCall: T_ID T_OPENPAREN . Arguments T_CLOSEPAREN

    T_NUMBER     shift, and go to state 59
    T_ID         shift, and go to state 60
    T_MINUS      shift, and go to state 61
    T_NOT        shift, and go to state 62
    T_OPENPAREN  shift, and go to state 63
    T_NEW        shift, and go to state 64
    T_FALSE      shift, and go to state 65
    T_TRUE       shift, and go to state 66

    $default  reduce using rule 64 (Arguments)

    MethodCall  go to state 67
    Expression  go to state 79
    Arguments   go to state 80
    ArgumentsP  go to state 81


state 58

   34 Assignment: T_ID T_DOT . T_ID T_EQUAL Expression
   36 MethodCall: T_ID T_DOT . T_ID T_OPENPAREN Arguments T_CLOSEPAREN

    T_ID  shift, and go to state 82


state 59

   58 Expression: T_NUMBER .

    $default  reduce using rule 58 (Expression)


state 60

   35 MethodCall: T_ID . T_OPENPAREN Arguments T_CLOSEPAREN
   36           | T_ID . T_DOT T_ID T_OPENPAREN Arguments T_CLOSEPAREN
   54 Expression: T_ID .
   55           | T_ID . T_DOT T_ID

    T_OPENPAREN  shift, and go to state 57
    T_DOT        shift, and go to state 83

    $default  reduce using rule 54 (Expression)


state 61

   53 Expression: T_MINUS . Expression

    T_NUMBER     shift, and go to state 59
    T_ID         shift, and go to state 60
    T_MINUS      shift, and go to state 61
    T_NOT        shift, and go to state 62
    T_OPENPAREN  shift, and go to state 63
    T_NEW        shift, and go to state 64
    T_FALSE      shift, and go to state 65
    T_TRUE       shift, and go to state 66

    MethodCall  go to state 67
    Expression  go to state 84


state 62

   52 Expression: T_NOT . Expression

    T_NUMBER     shift, and go to state 59
    T_ID         shift, and go to state 60
    T_MINUS      shift, and go to state 61
    T_NOT        shift, and go to state 62
    T_OPENPAREN  shift, and go to state 63
    T_NEW        shift, and go to state 64
    T_FALSE      shift, and go to state 65
    T_TRUE       shift, and go to state 66

    MethodCall  go to state 67
    Expression  go to state 85


state 63

   57 Expression: T_OPENPAREN . Expression T_CLOSEPAREN

    T_NUMBER     shift, and go to state 59
    T_ID         shift, and go to state 60
    T_MINUS      shift, and go to state 61
    T_NOT        shift, and go to state 62
    T_OPENPAREN  shift, and go to state 63
    T_NEW        shift, and go to state 64
    T_FALSE      shift, and go to state 65
    T_TRUE       shift, and go to state 66

    MethodCall  go to state 67
    Expression  go to state 86


state 64

   61 Expression: T_NEW . T_ID
   62           | T_NEW . T_ID T_OPENPAREN Arguments T_CLOSEPAREN

    T_ID  shift, and go to state 87


state 65

   60 Expression: T_FALSE .

    $default  reduce using rule 60 (Expression)


state 66

   59 Expression: T_TRUE .

    $default  reduce using rule 59 (Expression)


state 67

   56 Expression: MethodCall .

    $default  reduce using rule 56 (Expression)


state 68

   42 Print: T_PRINT Expression .
   43 Expression: Expression . T_PLUS Expression
   44           | Expression . T_MINUS Expression
   45           | Expression . T_MULTIPLY Expression
   46           | Expression . T_DIVIDE Expression
   47           | Expression . T_LESS Expression
   48           | Expression . T_LESSOREQUAL Expression
   49           | Expression . T_EQUALS Expression
   50           | Expression . T_AND Expression
   51           | Expression . T_OR Expression

    T_PLUS         shift, and go to state 88
    T_MINUS        shift, and go to state 89
    T_MULTIPLY     shift, and go to state 90
    T_DIVIDE       shift, and go to state 91
    T_LESS         shift, and go to state 92
    T_LESSOREQUAL  shift, and go to state 93
    T_EQUALS       shift, and go to state 94
    T_AND          shift, and go to state 95
    T_OR           shift, and go to state 96

    $default  reduce using rule 42 (Print)


state 69

   26 Return: T_RETURN Expression .
   43 Expression: Expression . T_PLUS Expression
   44           | Expression . T_MINUS Expression
   45           | Expression . T_MULTIPLY Expression
   46           | Expression . T_DIVIDE Expression
   47           | Expression . T_LESS Expression
   48           | Expression . T_LESSOREQUAL Expression
   49           | Expression . T_EQUALS Expression
   50           | Expression . T_AND Expression
   51           | Expression . T_OR Expression

    T_PLUS         shift, and go to state 88
    T_MINUS        shift, and go to state 89
    T_MULTIPLY     shift, and go to state 90
    T_DIVIDE       shift, and go to state 91
    T_LESS         shift, and go to state 92
    T_LESSOREQUAL  shift, and go to state 93
    T_EQUALS       shift, and go to state 94
    T_AND          shift, and go to state 95
    T_OR           shift, and go to state 96

    $default  reduce using rule 26 (Return)


state 70

   37 IfElse: T_IF Expression . T_OPENBRACK Block T_CLOSEBRACK
   38       | T_IF Expression . T_OPENBRACK Block T_CLOSEBRACK T_ELSE T_OPENBRACK Block T_CLOSEBRACK
   43 Expression: Expression . T_PLUS Expression
   44           | Expression . T_MINUS Expression
   45           | Expression . T_MULTIPLY Expression
   46           | Expression . T_DIVIDE Expression
   47           | Expression . T_LESS Expression
   48           | Expression . T_LESSOREQUAL Expression
   49           | Expression . T_EQUALS Expression
   50           | Expression . T_AND Expression
   51           | Expression . T_OR Expression

    T_PLUS         shift, and go to state 88
    T_MINUS        shift, and go to state 89
    T_MULTIPLY     shift, and go to state 90
    T_DIVIDE       shift, and go to state 91
    T_LESS         shift, and go to state 92
    T_LESSOREQUAL  shift, and go to state 93
    T_EQUALS       shift, and go to state 94
    T_AND          shift, and go to state 95
    T_OR           shift, and go to state 96
    T_OPENBRACK    shift, and go to state 97


state 71

   39 While: T_WHILE Expression . T_OPENBRACK Block T_CLOSEBRACK
   43 Expression: Expression . T_PLUS Expression
   44           | Expression . T_MINUS Expression
   45           | Expression . T_MULTIPLY Expression
   46           | Expression . T_DIVIDE Expression
   47           | Expression . T_LESS Expression
   48           | Expression . T_LESSOREQUAL Expression
   49           | Expression . T_EQUALS Expression
   50           | Expression . T_AND Expression
   51           | Expression . T_OR Expression

    T_PLUS         shift, and go to state 88
    T_MINUS        shift, and go to state 89
    T_MULTIPLY     shift, and go to state 90
    T_DIVIDE       shift, and go to state 91
    T_LESS         shift, and go to state 92
    T_LESSOREQUAL  shift, and go to state 93
    T_EQUALS       shift, and go to state 94
    T_AND          shift, and go to state 95
    T_OR           shift, and go to state 96
    T_OPENBRACK    shift, and go to state 98


state 72

   23 Declaration: Type T_ID .

    $default  reduce using rule 23 (Declaration)


state 73

   14 Methods: T_ID T_OPENPAREN Parameters T_CLOSEPAREN T_ARROW ReturnType T_OPENBRACK Declarations T_CLOSEBRACK . Methods

    T_ID  shift, and go to state 99

    $default  reduce using rule 15 (Methods)

    Methods  go to state 100


state 74

   22 Declaration: Declaration T_COMMA . T_ID

    T_ID  shift, and go to state 101


state 75

   20 Declarations: Declaration Declarations .

    $default  reduce using rule 20 (Declarations)


state 76

   33 Assignment: T_ID . T_EQUAL Expression
   34           | T_ID . T_DOT T_ID T_EQUAL Expression
   35 MethodCall: T_ID . T_OPENPAREN Arguments T_CLOSEPAREN
   36           | T_ID . T_DOT T_ID T_OPENPAREN Arguments T_CLOSEPAREN

    T_EQUAL      shift, and go to state 56
    T_OPENPAREN  shift, and go to state 57
    T_DOT        shift, and go to state 58


state 77

   24 Statements: Statement Statements .

    $default  reduce using rule 24 (Statements)


state 78

   33 Assignment: T_ID T_EQUAL Expression .
   43 Expression: Expression . T_PLUS Expression
   44           | Expression . T_MINUS Expression
   45           | Expression . T_MULTIPLY Expression
   46           | Expression . T_DIVIDE Expression
   47           | Expression . T_LESS Expression
   48           | Expression . T_LESSOREQUAL Expression
   49           | Expression . T_EQUALS Expression
   50           | Expression . T_AND Expression
   51           | Expression . T_OR Expression

    T_PLUS         shift, and go to state 88
    T_MINUS        shift, and go to state 89
    T_MULTIPLY     shift, and go to state 90
    T_DIVIDE       shift, and go to state 91
    T_LESS         shift, and go to state 92
    T_LESSOREQUAL  shift, and go to state 93
    T_EQUALS       shift, and go to state 94
    T_AND          shift, and go to state 95
    T_OR           shift, and go to state 96

    $default  reduce using rule 33 (Assignment)


state 79

   43 Expression: Expression . T_PLUS Expression
   44           | Expression . T_MINUS Expression
   45           | Expression . T_MULTIPLY Expression
   46           | Expression . T_DIVIDE Expression
   47           | Expression . T_LESS Expression
   48           | Expression . T_LESSOREQUAL Expression
   49           | Expression . T_EQUALS Expression
   50           | Expression . T_AND Expression
   51           | Expression . T_OR Expression
   66 ArgumentsP: Expression .

    T_PLUS         shift, and go to state 88
    T_MINUS        shift, and go to state 89
    T_MULTIPLY     shift, and go to state 90
    T_DIVIDE       shift, and go to state 91
    T_LESS         shift, and go to state 92
    T_LESSOREQUAL  shift, and go to state 93
    T_EQUALS       shift, and go to state 94
    T_AND          shift, and go to state 95
    T_OR           shift, and go to state 96

    $default  reduce using rule 66 (ArgumentsP)


state 80

   35 MethodCall: T_ID T_OPENPAREN Arguments . T_CLOSEPAREN

    T_CLOSEPAREN  shift, and go to state 102


state 81

   63 Arguments: ArgumentsP .
   65 ArgumentsP: ArgumentsP . T_COMMA Expression

    T_COMMA  shift, and go to state 103

    $default  reduce using rule 63 (Arguments)


state 82

   34 Assignment: T_ID T_DOT T_ID . T_EQUAL Expression
   36 MethodCall: T_ID T_DOT T_ID . T_OPENPAREN Arguments T_CLOSEPAREN

    T_EQUAL      shift, and go to state 104
    T_OPENPAREN  shift, and go to state 105


state 83

   36 MethodCall: T_ID T_DOT . T_ID T_OPENPAREN Arguments T_CLOSEPAREN
   55 Expression: T_ID T_DOT . T_ID

    T_ID  shift, and go to state 106


state 84

   43 Expression: Expression . T_PLUS Expression
   44           | Expression . T_MINUS Expression
   45           | Expression . T_MULTIPLY Expression
   46           | Expression . T_DIVIDE Expression
   47           | Expression . T_LESS Expression
   48           | Expression . T_LESSOREQUAL Expression
   49           | Expression . T_EQUALS Expression
   50           | Expression . T_AND Expression
   51           | Expression . T_OR Expression
   53           | T_MINUS Expression .

    $default  reduce using rule 53 (Expression)


state 85

   43 Expression: Expression . T_PLUS Expression
   44           | Expression . T_MINUS Expression
   45           | Expression . T_MULTIPLY Expression
   46           | Expression . T_DIVIDE Expression
   47           | Expression . T_LESS Expression
   48           | Expression . T_LESSOREQUAL Expression
   49           | Expression . T_EQUALS Expression
   50           | Expression . T_AND Expression
   51           | Expression . T_OR Expression
   52           | T_NOT Expression .

    $default  reduce using rule 52 (Expression)


state 86

   43 Expression: Expression . T_PLUS Expression
   44           | Expression . T_MINUS Expression
   45           | Expression . T_MULTIPLY Expression
   46           | Expression . T_DIVIDE Expression
   47           | Expression . T_LESS Expression
   48           | Expression . T_LESSOREQUAL Expression
   49           | Expression . T_EQUALS Expression
   50           | Expression . T_AND Expression
   51           | Expression . T_OR Expression
   57           | T_OPENPAREN Expression . T_CLOSEPAREN

    T_PLUS         shift, and go to state 88
    T_MINUS        shift, and go to state 89
    T_MULTIPLY     shift, and go to state 90
    T_DIVIDE       shift, and go to state 91
    T_LESS         shift, and go to state 92
    T_LESSOREQUAL  shift, and go to state 93
    T_EQUALS       shift, and go to state 94
    T_AND          shift, and go to state 95
    T_OR           shift, and go to state 96
    T_CLOSEPAREN   shift, and go to state 107


state 87

   61 Expression: T_NEW T_ID .
   62           | T_NEW T_ID . T_OPENPAREN Arguments T_CLOSEPAREN

    T_OPENPAREN  shift, and go to state 108

    $default  reduce using rule 61 (Expression)


state 88

   43 Expression: Expression T_PLUS . Expression

    T_NUMBER     shift, and go to state 59
    T_ID         shift, and go to state 60
    T_MINUS      shift, and go to state 61
    T_NOT        shift, and go to state 62
    T_OPENPAREN  shift, and go to state 63
    T_NEW        shift, and go to state 64
    T_FALSE      shift, and go to state 65
    T_TRUE       shift, and go to state 66

    MethodCall  go to state 67
    Expression  go to state 109


state 89

   44 Expression: Expression T_MINUS . Expression

    T_NUMBER     shift, and go to state 59
    T_ID         shift, and go to state 60
    T_MINUS      shift, and go to state 61
    T_NOT        shift, and go to state 62
    T_OPENPAREN  shift, and go to state 63
    T_NEW        shift, and go to state 64
    T_FALSE      shift, and go to state 65
    T_TRUE       shift, and go to state 66

    MethodCall  go to state 67
    Expression  go to state 110


state 90

   45 Expression: Expression T_MULTIPLY . Expression

    T_NUMBER     shift, and go to state 59
    T_ID         shift, and go to state 60
    T_MINUS      shift, and go to state 61
    T_NOT        shift, and go to state 62
    T_OPENPAREN  shift, and go to state 63
    T_NEW        shift, and go to state 64
    T_FALSE      shift, and go to state 65
    T_TRUE       shift, and go to state 66

    MethodCall  go to state 67
    Expression  go to state 111


state 91

   46 Expression: Expression T_DIVIDE . Expression

    T_NUMBER     shift, and go to state 59
    T_ID         shift, and go to state 60
    T_MINUS      shift, and go to state 61
    T_NOT        shift, and go to state 62
    T_OPENPAREN  shift, and go to state 63
    T_NEW        shift, and go to state 64
    T_FALSE      shift, and go to state 65
    T_TRUE       shift, and go to state 66

    MethodCall  go to state 67
    Expression  go to state 112


state 92

   47 Expression: Expression T_LESS . Expression

    T_NUMBER     shift, and go to state 59
    T_ID         shift, and go to state 60
    T_MINUS      shift, and go to state 61
    T_NOT        shift, and go to state 62
    T_OPENPAREN  shift, and go to state 63
    T_NEW        shift, and go to state 64
    T_FALSE      shift, and go to state 65
    T_TRUE       shift, and go to state 66

    MethodCall  go to state 67
    Expression  go to state 113


state 93

   48 Expression: Expression T_LESSOREQUAL . Expression

    T_NUMBER     shift, and go to state 59
    T_ID         shift, and go to state 60
    T_MINUS      shift, and go to state 61
    T_NOT        shift, and go to state 62
    T_OPENPAREN  shift, and go to state 63
    T_NEW        shift, and go to state 64
    T_FALSE      shift, and go to state 65
    T_TRUE       shift, and go to state 66

    MethodCall  go to state 67
    Expression  go to state 114


state 94

   49 Expression: Expression T_EQUALS . Expression

    T_NUMBER     shift, and go to state 59
    T_ID         shift, and go to state 60
    T_MINUS      shift, and go to state 61
    T_NOT        shift, and go to state 62
    T_OPENPAREN  shift, and go to state 63
    T_NEW        shift, and go to state 64
    T_FALSE      shift, and go to state 65
    T_TRUE       shift, and go to state 66

    MethodCall  go to state 67
    Expression  go to state 115


state 95

   50 Expression: Expression T_AND . Expression

    T_NUMBER     shift, and go to state 59
    T_ID         shift, and go to state 60
    T_MINUS      shift, and go to state 61
    T_NOT        shift, and go to state 62
    T_OPENPAREN  shift, and go to state 63
    T_NEW        shift, and go to state 64
    T_FALSE      shift, and go to state 65
    T_TRUE       shift, and go to state 66

    MethodCall  go to state 67
    Expression  go to state 116


state 96

   51 Expression: Expression T_OR . Expression

    T_NUMBER     shift, and go to state 59
    T_ID         shift, and go to state 60
    T_MINUS      shift, and go to state 61
    T_NOT        shift, and go to state 62
    T_OPENPAREN  shift, and go to state 63
    T_NEW        shift, and go to state 64
    T_FALSE      shift, and go to state 65
    T_TRUE       shift, and go to state 66

    MethodCall  go to state 67
    Expression  go to state 117


state 97

   37 IfElse: T_IF Expression T_OPENBRACK . Block T_CLOSEBRACK
   38       | T_IF Expression T_OPENBRACK . Block T_CLOSEBRACK T_ELSE T_OPENBRACK Block T_CLOSEBRACK

    T_ID     shift, and go to state 76
    T_PRINT  shift, and go to state 41
    T_IF     shift, and go to state 43
    T_WHILE  shift, and go to state 44

    Statement   go to state 118
    Assignment  go to state 51
    MethodCall  go to state 52
    IfElse      go to state 53
    While       go to state 54
    Block       go to state 119
    Print       go to state 55


state 98

   39 While: T_WHILE Expression T_OPENBRACK . Block T_CLOSEBRACK

    T_ID     shift, and go to state 76
    T_PRINT  shift, and go to state 41
    T_IF     shift, and go to state 43
    T_WHILE  shift, and go to state 44

    Statement   go to state 118
    Assignment  go to state 51
    MethodCall  go to state 52
    IfElse      go to state 53
    While       go to state 54
    Block       go to state 120
    Print       go to state 55


state 99

   14 Methods: T_ID . T_OPENPAREN Parameters T_CLOSEPAREN T_ARROW ReturnType T_OPENBRACK Declarations T_CLOSEBRACK Methods

    T_OPENPAREN  shift, and go to state 15


state 100

   14 Methods: T_ID T_OPENPAREN Parameters T_CLOSEPAREN T_ARROW ReturnType T_OPENBRACK Declarations T_CLOSEBRACK Methods .

    $default  reduce using rule 14 (Methods)


state 101

   22 Declaration: Declaration T_COMMA T_ID .

    $default  reduce using rule 22 (Declaration)


state 102

   35 MethodCall: T_ID T_OPENPAREN Arguments T_CLOSEPAREN .

    $default  reduce using rule 35 (MethodCall)


state 103

   65 ArgumentsP: ArgumentsP T_COMMA . Expression

    T_NUMBER     shift, and go to state 59
    T_ID         shift, and go to state 60
    T_MINUS      shift, and go to state 61
    T_NOT        shift, and go to state 62
    T_OPENPAREN  shift, and go to state 63
    T_NEW        shift, and go to state 64
    T_FALSE      shift, and go to state 65
    T_TRUE       shift, and go to state 66

    MethodCall  go to state 67
    Expression  go to state 121


state 104

   34 Assignment: T_ID T_DOT T_ID T_EQUAL . Expression

    T_NUMBER     shift, and go to state 59
    T_ID         shift, and go to state 60
    T_MINUS      shift, and go to state 61
    T_NOT        shift, and go to state 62
    T_OPENPAREN  shift, and go to state 63
    T_NEW        shift, and go to state 64
    T_FALSE      shift, and go to state 65
    T_TRUE       shift, and go to state 66

    MethodCall  go to state 67
    Expression  go to state 122


state 105

   36 MethodCall: T_ID T_DOT T_ID T_OPENPAREN . Arguments T_CLOSEPAREN

    T_NUMBER     shift, and go to state 59
    T_ID         shift, and go to state 60
    T_MINUS      shift, and go to state 61
    T_NOT        shift, and go to state 62
    T_OPENPAREN  shift, and go to state 63
    T_NEW        shift, and go to state 64
    T_FALSE      shift, and go to state 65
    T_TRUE       shift, and go to state 66

    $default  reduce using rule 64 (Arguments)

    MethodCall  go to state 67
    Expression  go to state 79
    Arguments   go to state 123
    ArgumentsP  go to state 81


state 106

   36 MethodCall: T_ID T_DOT T_ID . T_OPENPAREN Arguments T_CLOSEPAREN
   55 Expression: T_ID T_DOT T_ID .

    T_OPENPAREN  shift, and go to state 105

    $default  reduce using rule 55 (Expression)


state 107

   57 Expression: T_OPENPAREN Expression T_CLOSEPAREN .

    $default  reduce using rule 57 (Expression)


state 108

   62 Expression: T_NEW T_ID T_OPENPAREN . Arguments T_CLOSEPAREN

    T_NUMBER     shift, and go to state 59
    T_ID         shift, and go to state 60
    T_MINUS      shift, and go to state 61
    T_NOT        shift, and go to state 62
    T_OPENPAREN  shift, and go to state 63
    T_NEW        shift, and go to state 64
    T_FALSE      shift, and go to state 65
    T_TRUE       shift, and go to state 66

    $default  reduce using rule 64 (Arguments)

    MethodCall  go to state 67
    Expression  go to state 79
    Arguments   go to state 124
    ArgumentsP  go to state 81


state 109

   43 Expression: Expression . T_PLUS Expression
   43           | Expression T_PLUS Expression .
   44           | Expression . T_MINUS Expression
   45           | Expression . T_MULTIPLY Expression
   46           | Expression . T_DIVIDE Expression
   47           | Expression . T_LESS Expression
   48           | Expression . T_LESSOREQUAL Expression
   49           | Expression . T_EQUALS Expression
   50           | Expression . T_AND Expression
   51           | Expression . T_OR Expression

    T_MULTIPLY  shift, and go to state 90
    T_DIVIDE    shift, and go to state 91

    $default  reduce using rule 43 (Expression)


state 110

   43 Expression: Expression . T_PLUS Expression
   44           | Expression . T_MINUS Expression
   44           | Expression T_MINUS Expression .
   45           | Expression . T_MULTIPLY Expression
   46           | Expression . T_DIVIDE Expression
   47           | Expression . T_LESS Expression
   48           | Expression . T_LESSOREQUAL Expression
   49           | Expression . T_EQUALS Expression
   50           | Expression . T_AND Expression
   51           | Expression . T_OR Expression

    T_MULTIPLY  shift, and go to state 90
    T_DIVIDE    shift, and go to state 91

    $default  reduce using rule 44 (Expression)


state 111

   43 Expression: Expression . T_PLUS Expression
   44           | Expression . T_MINUS Expression
   45           | Expression . T_MULTIPLY Expression
   45           | Expression T_MULTIPLY Expression .
   46           | Expression . T_DIVIDE Expression
   47           | Expression . T_LESS Expression
   48           | Expression . T_LESSOREQUAL Expression
   49           | Expression . T_EQUALS Expression
   50           | Expression . T_AND Expression
   51           | Expression . T_OR Expression

    $default  reduce using rule 45 (Expression)


state 112

   43 Expression: Expression . T_PLUS Expression
   44           | Expression . T_MINUS Expression
   45           | Expression . T_MULTIPLY Expression
   46           | Expression . T_DIVIDE Expression
   46           | Expression T_DIVIDE Expression .
   47           | Expression . T_LESS Expression
   48           | Expression . T_LESSOREQUAL Expression
   49           | Expression . T_EQUALS Expression
   50           | Expression . T_AND Expression
   51           | Expression . T_OR Expression

    $default  reduce using rule 46 (Expression)


state 113

   43 Expression: Expression . T_PLUS Expression
   44           | Expression . T_MINUS Expression
   45           | Expression . T_MULTIPLY Expression
   46           | Expression . T_DIVIDE Expression
   47           | Expression . T_LESS Expression
   47           | Expression T_LESS Expression .
   48           | Expression . T_LESSOREQUAL Expression
   49           | Expression . T_EQUALS Expression
   50           | Expression . T_AND Expression
   51           | Expression . T_OR Expression

    T_PLUS      shift, and go to state 88
    T_MINUS     shift, and go to state 89
    T_MULTIPLY  shift, and go to state 90
    T_DIVIDE    shift, and go to state 91

    $default  reduce using rule 47 (Expression)


state 114

   43 Expression: Expression . T_PLUS Expression
   44           | Expression . T_MINUS Expression
   45           | Expression . T_MULTIPLY Expression
   46           | Expression . T_DIVIDE Expression
   47           | Expression . T_LESS Expression
   48           | Expression . T_LESSOREQUAL Expression
   48           | Expression T_LESSOREQUAL Expression .
   49           | Expression . T_EQUALS Expression
   50           | Expression . T_AND Expression
   51           | Expression . T_OR Expression

    T_PLUS      shift, and go to state 88
    T_MINUS     shift, and go to state 89
    T_MULTIPLY  shift, and go to state 90
    T_DIVIDE    shift, and go to state 91

    $default  reduce using rule 48 (Expression)


state 115

   43 Expression: Expression . T_PLUS Expression
   44           | Expression . T_MINUS Expression
   45           | Expression . T_MULTIPLY Expression
   46           | Expression . T_DIVIDE Expression
   47           | Expression . T_LESS Expression
   48           | Expression . T_LESSOREQUAL Expression
   49           | Expression . T_EQUALS Expression
   49           | Expression T_EQUALS Expression .
   50           | Expression . T_AND Expression
   51           | Expression . T_OR Expression

    T_PLUS      shift, and go to state 88
    T_MINUS     shift, and go to state 89
    T_MULTIPLY  shift, and go to state 90
    T_DIVIDE    shift, and go to state 91

    $default  reduce using rule 49 (Expression)


state 116

   43 Expression: Expression . T_PLUS Expression
   44           | Expression . T_MINUS Expression
   45           | Expression . T_MULTIPLY Expression
   46           | Expression . T_DIVIDE Expression
   47           | Expression . T_LESS Expression
   48           | Expression . T_LESSOREQUAL Expression
   49           | Expression . T_EQUALS Expression
   50           | Expression . T_AND Expression
   50           | Expression T_AND Expression .
   51           | Expression . T_OR Expression

    T_PLUS         shift, and go to state 88
    T_MINUS        shift, and go to state 89
    T_MULTIPLY     shift, and go to state 90
    T_DIVIDE       shift, and go to state 91
    T_LESS         shift, and go to state 92
    T_LESSOREQUAL  shift, and go to state 93
    T_EQUALS       shift, and go to state 94

    $default  reduce using rule 50 (Expression)


state 117

   43 Expression: Expression . T_PLUS Expression
   44           | Expression . T_MINUS Expression
   45           | Expression . T_MULTIPLY Expression
   46           | Expression . T_DIVIDE Expression
   47           | Expression . T_LESS Expression
   48           | Expression . T_LESSOREQUAL Expression
   49           | Expression . T_EQUALS Expression
   50           | Expression . T_AND Expression
   51           | Expression . T_OR Expression
   51           | Expression T_OR Expression .

    T_PLUS         shift, and go to state 88
    T_MINUS        shift, and go to state 89
    T_MULTIPLY     shift, and go to state 90
    T_DIVIDE       shift, and go to state 91
    T_LESS         shift, and go to state 92
    T_LESSOREQUAL  shift, and go to state 93
    T_EQUALS       shift, and go to state 94
    T_AND          shift, and go to state 95

    $default  reduce using rule 51 (Expression)


state 118

   41 Block: Statement .

    $default  reduce using rule 41 (Block)


state 119

   37 IfElse: T_IF Expression T_OPENBRACK Block . T_CLOSEBRACK
   38       | T_IF Expression T_OPENBRACK Block . T_CLOSEBRACK T_ELSE T_OPENBRACK Block T_CLOSEBRACK
   40 Block: Block . Statement

    T_ID          shift, and go to state 76
    T_PRINT       shift, and go to state 41
    T_IF          shift, and go to state 43
    T_WHILE       shift, and go to state 44
    T_CLOSEBRACK  shift, and go to state 125

    Statement   go to state 126
    Assignment  go to state 51
    MethodCall  go to state 52
    IfElse      go to state 53
    While       go to state 54
    Print       go to state 55


state 120

   39 While: T_WHILE Expression T_OPENBRACK Block . T_CLOSEBRACK
   40 Block: Block . Statement

    T_ID          shift, and go to state 76
    T_PRINT       shift, and go to state 41
    T_IF          shift, and go to state 43
    T_WHILE       shift, and go to state 44
    T_CLOSEBRACK  shift, and go to state 127

    Statement   go to state 126
    Assignment  go to state 51
    MethodCall  go to state 52
    IfElse      go to state 53
    While       go to state 54
    Print       go to state 55


state 121

   43 Expression: Expression . T_PLUS Expression
   44           | Expression . T_MINUS Expression
   45           | Expression . T_MULTIPLY Expression
   46           | Expression . T_DIVIDE Expression
   47           | Expression . T_LESS Expression
   48           | Expression . T_LESSOREQUAL Expression
   49           | Expression . T_EQUALS Expression
   50           | Expression . T_AND Expression
   51           | Expression . T_OR Expression
   65 ArgumentsP: ArgumentsP T_COMMA Expression .

    T_PLUS         shift, and go to state 88
    T_MINUS        shift, and go to state 89
    T_MULTIPLY     shift, and go to state 90
    T_DIVIDE       shift, and go to state 91
    T_LESS         shift, and go to state 92
    T_LESSOREQUAL  shift, and go to state 93
    T_EQUALS       shift, and go to state 94
    T_AND          shift, and go to state 95
    T_OR           shift, and go to state 96

    $default  reduce using rule 65 (ArgumentsP)


state 122

   34 Assignment: T_ID T_DOT T_ID T_EQUAL Expression .
   43 Expression: Expression . T_PLUS Expression
   44           | Expression . T_MINUS Expression
   45           | Expression . T_MULTIPLY Expression
   46           | Expression . T_DIVIDE Expression
   47           | Expression . T_LESS Expression
   48           | Expression . T_LESSOREQUAL Expression
   49           | Expression . T_EQUALS Expression
   50           | Expression . T_AND Expression
   51           | Expression . T_OR Expression

    T_PLUS         shift, and go to state 88
    T_MINUS        shift, and go to state 89
    T_MULTIPLY     shift, and go to state 90
    T_DIVIDE       shift, and go to state 91
    T_LESS         shift, and go to state 92
    T_LESSOREQUAL  shift, and go to state 93
    T_EQUALS       shift, and go to state 94
    T_AND          shift, and go to state 95
    T_OR           shift, and go to state 96

    $default  reduce using rule 34 (Assignment)


state 123

   36 MethodCall: T_ID T_DOT T_ID T_OPENPAREN Arguments . T_CLOSEPAREN

    T_CLOSEPAREN  shift, and go to state 128


state 124

   62 Expression: T_NEW T_ID T_OPENPAREN Arguments . T_CLOSEPAREN

    T_CLOSEPAREN  shift, and go to state 129


state 125

   37 IfElse: T_IF Expression T_OPENBRACK Block T_CLOSEBRACK .
   38       | T_IF Expression T_OPENBRACK Block T_CLOSEBRACK . T_ELSE T_OPENBRACK Block T_CLOSEBRACK

    T_ELSE  shift, and go to state 130

    $default  reduce using rule 37 (IfElse)


state 126

   40 Block: Block Statement .

    $default  reduce using rule 40 (Block)


state 127

   39 While: T_WHILE Expression T_OPENBRACK Block T_CLOSEBRACK .

    $default  reduce using rule 39 (While)


state 128

   36 MethodCall: T_ID T_DOT T_ID T_OPENPAREN Arguments T_CLOSEPAREN .

    $default  reduce using rule 36 (MethodCall)


state 129

   62 Expression: T_NEW T_ID T_OPENPAREN Arguments T_CLOSEPAREN .

    $default  reduce using rule 62 (Expression)


state 130

   38 IfElse: T_IF Expression T_OPENBRACK Block T_CLOSEBRACK T_ELSE . T_OPENBRACK Block T_CLOSEBRACK

    T_OPENBRACK  shift, and go to state 131


state 131

   38 IfElse: T_IF Expression T_OPENBRACK Block T_CLOSEBRACK T_ELSE T_OPENBRACK . Block T_CLOSEBRACK

    T_ID     shift, and go to state 76
    T_PRINT  shift, and go to state 41
    T_IF     shift, and go to state 43
    T_WHILE  shift, and go to state 44

    Statement   go to state 118
    Assignment  go to state 51
    MethodCall  go to state 52
    IfElse      go to state 53
    While       go to state 54
    Block       go to state 132
    Print       go to state 55


state 132

   38 IfElse: T_IF Expression T_OPENBRACK Block T_CLOSEBRACK T_ELSE T_OPENBRACK Block . T_CLOSEBRACK
   40 Block: Block . Statement

    T_ID          shift, and go to state 76
    T_PRINT       shift, and go to state 41
    T_IF          shift, and go to state 43
    T_WHILE       shift, and go to state 44
    T_CLOSEBRACK  shift, and go to state 133

    Statement   go to state 126
    Assignment  go to state 51
    MethodCall  go to state 52
    IfElse      go to state 53
    While       go to state 54
    Print       go to state 55


state 133

   38 IfElse: T_IF Expression T_OPENBRACK Block T_CLOSEBRACK T_ELSE T_OPENBRACK Block T_CLOSEBRACK .

    $default  reduce using rule 38 (IfElse)
